%YAML 1.1
%TAG !u! tag:unity3d.com,2011:
--- !u!114 &11400000
MonoBehaviour:
  m_ObjectHideFlags: 0
  m_CorrespondingSourceObject: {fileID: 0}
  m_PrefabInstance: {fileID: 0}
  m_PrefabAsset: {fileID: 0}
  m_GameObject: {fileID: 0}
  m_Enabled: 1
  m_EditorHideFlags: 0
  m_Script: {fileID: 11500000, guid: f1f7a701865d04946bc3ec6b4e28f77a, type: 3}
  m_Name: StateTob1
  m_EditorClassIdentifier: 
  storyText: "\u041D\u0443 \u0447\u0442\u043E \u0436. \u041A\u0430\u043A \u0433\u043E\u0432\u043E\u0440\u0438\u0442\u0441\u044F,
    \u0434\u0440\u0443\u0433 \u043F\u043E\u0437\u043D\u0430\u0435\u0442\u0441\u044F
    \u0432 \u0431\u0435\u0434\u0435. \u041F\u043E \u043A\u0440\u0430\u0439\u043D\u0435\u0439
    \u043C\u0435\u0440\u0435, \u0442\u044B \u0442\u043E\u0447\u043D\u043E \u043D\u0435
    \u0443\u043C\u0440\u0435\u0448\u044C \u0432 \u043E\u0434\u0438\u043D\u043E\u0447\u0435\u0441\u0442\u0432\u0435.\r\n\r\n\u0422\u044B
    \u0432\u044B\u0431\u0438\u0432\u0430\u0435\u0448\u044C \u0437\u0430\u043A\u043B\u0438\u043D\u0438\u0432\u0448\u0438\u0439
    \u043B\u044E\u043A, \u0432\u044B\u043F\u0440\u044B\u0433\u0438\u0432\u0430\u0435\u0448\u044C
    \u0441 \u043A\u043E\u0440\u0430\u0431\u043B\u044F. \u0412\u0437\u0440\u044B\u0432
    \u0442\u043E\u043B\u043A\u0430\u0435\u0442 \u0442\u0435\u0431\u044F \u043D\u0430
    \u043A\u0430\u043C\u043D\u0438. \u041F\u043E\u043A\u0430 \u0442\u044B \u043F\u0440\u0438\u0445\u043E\u0434\u0438\u0448\u044C
    \u0432 \u0441\u0435\u0431\u044F, \u043F\u043B\u0430\u043C\u044F \u0443\u043D\u0438\u0447\u0442\u043E\u0436\u0430\u0435\u0442
    \u0442\u0432\u043E\u0439 \u043A\u0443\u0440\u044C\u0435\u0440\u0441\u043A\u0438\u0439
    \u043A\u043E\u0440\u0430\u0431\u043B\u044C \"Lucky Day\".\r\n\r\n\u0411\u043E\u043A\u043E\u0432\u044B\u043C
    \u0437\u0440\u0435\u043D\u0438\u0435\u043C \u0442\u044B \u0437\u0430\u043C\u0435\u0447\u0430\u0435\u0448\u044C
    \u0434\u0432\u0438\u0436\u0435\u043D\u0438\u0435. \u041A\u0430\u0436\u0435\u0442\u0441\u044F,
    \u043A\u0442\u043E-\u0442\u043E \u043F\u0440\u0438\u0431\u043B\u0438\u0436\u0430\u0435\u0442\u0441\u044F
    \u043A \u0442\u0435\u0431\u0435."
  nextStates:
  - {fileID: 11400000, guid: 9e409f504cf3d4f4391cc07ff1f94f97, type: 2}
  location: "\u041D\u0435\u0438\u0437\u0432\u0435\u0441\u0442\u043D\u0430\u044F \u043F\u043B\u0430\u043D\u0435\u0442\u0430"
  oxygenLevel: 0
  options:
  - "\u041E\u0441\u043C\u043E\u0442\u0440\u0435\u0442\u044C\u0441\u044F"
  isKeepSelectedOption: 0
  isRun: 0
