%YAML 1.1
%TAG !u! tag:unity3d.com,2011:
--- !u!114 &11400000
MonoBehaviour:
  m_ObjectHideFlags: 0
  m_CorrespondingSourceObject: {fileID: 0}
  m_PrefabInstance: {fileID: 0}
  m_PrefabAsset: {fileID: 0}
  m_GameObject: {fileID: 0}
  m_Enabled: 1
  m_EditorHideFlags: 0
  m_Script: {fileID: 11500000, guid: f1f7a701865d04946bc3ec6b4e28f77a, type: 3}
  m_Name: StateA1
  m_EditorClassIdentifier: 
  storyText: "\u041C\u0438\u0440\u0438\u0430\u0434\u044B \u0442\u043E\u0447\u0435\u043A
    \u043C\u0438\u0433\u0430\u044E\u0442 \u0438 \u0441 \u0431\u0435\u0448\u0435\u043D\u043E\u0439
    \u0441\u043A\u043E\u0440\u043E\u0441\u0442\u044C\u044E \u043B\u0435\u0442\u044F\u0442
    \u043D\u0430 \u0442\u0432\u043E\u044E \u043A\u043E\u0441\u043C\u0438\u0447\u0435\u0441\u043A\u0443\u044E
    \u0436\u0435\u0441\u0442\u044F\u043D\u043A\u0443. \u0421\u043B\u0438\u0448\u043A\u043E\u043C
    \u043C\u0430\u043B\u043E \u0432\u0440\u0435\u043C\u0435\u043D\u0438, \u0441\u043B\u0438\u0448\u043A\u043E\u043C
    \u043C\u0430\u043B\u043E \u043C\u043E\u0449\u043D\u043E\u0441\u0442\u0438. \u0420\u0443\u043A\u0438
    \u0432\u043F\u0438\u0432\u0430\u044E\u0442\u0441\u044F \u0432 \u0448\u0442\u0443\u0440\u0432\u0430\u043B."
  nextStates:
  - {fileID: 11400000, guid: 5ea7e54352547e64095470760470a2f8, type: 2}
  - {fileID: 11400000, guid: 6d462d1433dcc6447a1bc9564ebfc642, type: 2}
  - {fileID: 11400000, guid: 8714dc239e772a8469f496c5f5d6e178, type: 2}
  location: "\u041A\u043E\u0441\u043C\u0438\u0447\u0435\u0441\u043A\u0438\u0439 \u043A\u043E\u0440\u0430\u0431\u043B\u044C"
  oxygenLevel: 100
  options:
  - "\u041B\u0435\u0442\u0435\u0442\u044C \u0441\u043A\u0432\u043E\u0437\u044C \u0430\u0441\u0442\u0435\u0440\u043E\u0438\u0434\u043D\u043E\u0435
    \u043E\u0431\u043B\u0430\u043A\u043E"
  - "\u041D\u0430\u0447\u0430\u0442\u044C \u043C\u0430\u043D\u0435\u0432\u0440"
  - "\u0417\u0430\u043A\u0443\u0440\u0438\u0442\u044C"
  isKeepSelectedOption: 0
  isRun: 0
