%YAML 1.1
%TAG !u! tag:unity3d.com,2011:
--- !u!114 &11400000
MonoBehaviour:
  m_ObjectHideFlags: 0
  m_CorrespondingSourceObject: {fileID: 0}
  m_PrefabInstance: {fileID: 0}
  m_PrefabAsset: {fileID: 0}
  m_GameObject: {fileID: 0}
  m_Enabled: 1
  m_EditorHideFlags: 0
  m_Script: {fileID: 11500000, guid: f1f7a701865d04946bc3ec6b4e28f77a, type: 3}
  m_Name: StateF4
  m_EditorClassIdentifier: 
  storyText: "\u0422\u044B \u043D\u0435 \u043E\u0442\u0432\u043E\u0434\u0438\u0448\u044C
    \u0432\u0437\u0433\u043B\u044F\u0434\u0430 \u043E\u0442 \u0432\u0435\u0440\u0448\u0438\u043D\u044B,
    \u0447\u0442\u043E\u0431\u044B \u043D\u0435 \u0441\u043C\u043E\u0442\u0440\u0435\u0442\u044C
    \u043D\u0430 \u0441\u0432\u043E\u0435\u0433\u043E \u0441\u043F\u0443\u0442\u043D\u0438\u043A\u0430,
    \u0438 \u043F\u044B\u0442\u0430\u0435\u0448\u044C\u0441\u044F \u043F\u0435\u0440\u0435\u0432\u0430\u0440\u0438\u0442\u044C
    \u0432\u0441\u0435 \u043F\u0440\u043E\u0438\u0441\u0445\u043E\u0434\u044F\u0449\u0435\u0435.
    \u041F\u0443\u0441\u0442\u044B\u043D\u043D\u0430\u044F \u043F\u043B\u0430\u043D\u0435\u0442\u0430,
    \u0434\u0435\u0444\u0438\u0446\u0438\u0442 \u043A\u0438\u0441\u043B\u043E\u0440\u043E\u0434\u0430,
    \u0432\u0438\u0434\u0435\u043D\u0438\u044F \u0441 \u043E\u0431\u0440\u0430\u0437\u0430\u043C\u0438,
    \u043A\u043E\u0442\u043E\u0440\u044B\u0435 \u0442\u044B \u043F\u044B\u0442\u0430\u043B\u0441\u044F
    \u0437\u0430\u0431\u044B\u0442\u044C \u0432 \u0442\u0435\u0447\u0435\u043D\u0438\u0435
    \u043C\u043D\u043E\u0433\u0438\u0445 \u043B\u0435\u0442 \u0438 \u0432\u043E\u0442
    \u0442\u0435\u043F\u0435\u0440\u044C \u043F\u0440\u043E\u0433\u0443\u043B\u043A\u0430
    \u0441 \u0447\u0435\u0440\u043D\u044B\u043C \u0441\u0443\u0449\u0435\u0441\u0442\u0432\u043E\u043C,
    \u0441\u043E\u0442\u043A\u0430\u043D\u043D\u044B\u043C \u0438\u0437 \u0442\u0435\u043D\u0435\u0439.\r\n\r\n\"\u042F
    \u0443\u0437\u043D\u0430\u043B \u043C\u043D\u043E\u0433\u043E\u0435 \u043E \u0442\u0435\u0431\u0435
    \u0438 \u0442\u0432\u043E\u0435\u043C \u043C\u0438\u0440\u0435, \u041D\u0438\u043B,
    \u0431\u043B\u0430\u0433\u043E\u0434\u0430\u0440\u044F \u0441\u0432\u0435\u0434\u0435\u043D\u0438\u044F\u043C
    \u0432 \u0442\u0432\u043E\u0435\u0439 \u043F\u0430\u043C\u044F\u0442\u0438. \u0412\u044B
    \u0434\u0430\u0435\u0442\u0435 \u0434\u0440\u0443\u0433 \u0434\u0440\u0443\u0433\u0443
    \u0438\u043C\u0435\u043D\u0430. \u042D\u0442\u043E \u0438\u043D\u0442\u0435\u0440\u0435\u0441\u043D\u043E.
    \u042F \u0440\u0435\u0448\u0438\u043B \u043D\u0430\u0437\u0432\u0430\u0442\u044C
    \u0441\u0435\u0431\u044F \u0423\u043D\u0442\u0430\u043C\u043E\"."
  nextStates:
  - {fileID: 11400000, guid: f246a698e9679e14988818d3c77d64be, type: 2}
  location: "\u041D\u0435\u0438\u0437\u0432\u0435\u0441\u0442\u043D\u0430\u044F \u043F\u043B\u0430\u043D\u0435\u0442\u0430"
  oxygenLevel: 0
  options:
  - "\"\u041F\u0440\u0438\u044F\u0442\u043D\u043E \u043F\u043E\u0437\u043D\u0430\u043A\u043E\u043C\u0438\u0442\u044C\u0441\u044F
    ...\""
  isKeepSelectedOption: 0
  isRun: 0
