%YAML 1.1
%TAG !u! tag:unity3d.com,2011:
--- !u!114 &11400000
MonoBehaviour:
  m_ObjectHideFlags: 0
  m_CorrespondingSourceObject: {fileID: 0}
  m_PrefabInstance: {fileID: 0}
  m_PrefabAsset: {fileID: 0}
  m_GameObject: {fileID: 0}
  m_Enabled: 1
  m_EditorHideFlags: 0
  m_Script: {fileID: 11500000, guid: f1f7a701865d04946bc3ec6b4e28f77a, type: 3}
  m_Name: StateD3
  m_EditorClassIdentifier: 
  storyText: "\u0418\u0445 \u0447\u0435\u0440\u0442\u044B, \u0438\u0445 \u0433\u043B\u0430\u0437\u0430...
    \u041A\u0430\u043A \u0436\u0435 \u043E\u043D\u0438 \u043D\u0430\u043F\u043E\u043C\u0438\u043D\u0430\u044E\u0442
    \u0442\u0435\u0431\u0435 \u0435\u0435... \u041C\u0430\u0440\u043A \u0438 \u0411\u0438\u043B\u043B\u0438
    \u042D\u0432\u0430\u043D\u0441 - \u044D\u0442\u043E \u043E\u043D\u0438? \r\n\r\n\u041C\u0430\u043B\u044C\u0447\u0438\u0448\u043A\u0438
    \u0437\u0430\u043C\u0435\u0447\u0430\u044E\u0442 \u0442\u0435\u0431\u044F, \u0445\u0432\u0430\u0442\u0430\u044E\u0442
    \u0437\u0430 \u0440\u0443\u043A\u0438, \u0442\u044F\u043D\u0443\u0442 \u043D\u0430
    \u043F\u043B\u043E\u0449\u0430\u0434\u043A\u0443. \u0412 \u0441\u0442\u043E\u0440\u043E\u043D\u0435,
    \u0443 \u0434\u0435\u0440\u0435\u0432\u0430, \u0442\u044B \u0437\u0430\u043C\u0435\u0447\u0430\u0435\u0448\u044C
    \u0442\u0443 \u0441\u0430\u043C\u0443\u044E \u0441\u0432\u0435\u0442\u043B\u043E\u0432\u043E\u043B\u043E\u0441\u0443\u044E
    \u0434\u0435\u0432\u0443\u0448\u043A\u0443. \u041E\u043D\u0430 \u0443\u043B\u044B\u0431\u0430\u0435\u0442\u0441\u044F
    \u0438 \u043D\u0430\u0431\u043B\u044E\u0434\u0430\u0435\u0442 \u0437\u0430 \u0432\u0430\u043C\u0438."
  nextStates:
  - {fileID: 11400000, guid: dcae5bed23a5f284da304cd868fc1690, type: 2}
  location: "\u041D\u0435\u0438\u0437\u0432\u0435\u0441\u0442\u043D\u0430\u044F \u043F\u043B\u0430\u043D\u0435\u0442\u0430"
  oxygenLevel: 0
  options:
  - "\u041F\u043E\u0434\u043E\u0439\u0442\u0438 \u043A \u0434\u0435\u0432\u0443\u0448\u043A\u0435"
  isKeepSelectedOption: 0
