%YAML 1.1
%TAG !u! tag:unity3d.com,2011:
--- !u!114 &11400000
MonoBehaviour:
  m_ObjectHideFlags: 0
  m_CorrespondingSourceObject: {fileID: 0}
  m_PrefabInstance: {fileID: 0}
  m_PrefabAsset: {fileID: 0}
  m_GameObject: {fileID: 0}
  m_Enabled: 1
  m_EditorHideFlags: 0
  m_Script: {fileID: 11500000, guid: f1f7a701865d04946bc3ec6b4e28f77a, type: 3}
  m_Name: StateD5
  m_EditorClassIdentifier: 
  storyText: "\u0422\u044B \u0432\u0441\u043F\u043E\u043C\u0438\u043D\u0430\u0435\u0448\u044C,
    \u043A\u0430\u043A \u0433\u0435\u0440\u043E\u0438 \u043E\u0434\u043D\u043E\u0433\u043E
    \u0441\u0442\u0430\u0440\u043E\u0433\u043E \u0444\u0438\u043B\u044C\u043C\u0430
    \u0432\u043A\u043B\u044E\u0447\u0430\u043B\u0438 \u0433\u0440\u0430\u043C\u043C\u043E\u0444\u043E\u043D.
    \u0417\u0430\u0432\u043E\u0434\u0438\u0448\u044C \u0435\u0433\u043E \u043F\u0440\u0438
    \u043F\u043E\u043C\u043E\u0449\u0438 \u0440\u0443\u043A\u043E\u044F\u0442\u0438,
    \u0441\u0442\u0430\u0432\u0438\u0448\u044C \u043F\u043B\u0430\u0441\u0442\u0438\u043D\u043A\u0443,
    \u0438\u0433\u043B\u0443 \u0438 \u043E\u0442\u043F\u0443\u0441\u043A\u0430\u0435\u0448\u044C
    \u0440\u044B\u0447\u0430\u0436\u043E\u043A.\r\n\r\n\u201C\u0422\u043E\u043B\u044C\u043A\u043E
    \u0442\u044B \u0437\u0432\u0435\u0437\u0434\u0430 \u0432 \u043D\u0435\u0431\u0435\u0441\u0430\u0445
    \u043C\u043E\u0438\u0445...\u201D - \u0437\u0432\u0443\u0447\u0438\u0442 \u0442\u0440\u0435\u0441\u043A\u0443\u0447\u0438\u0439
    \u0433\u043E\u043B\u043E\u0441 \u0438\u0437 \u0440\u0443\u043F\u043E\u0440\u0430.\r\n\r\n\u0414\u0435\u0442\u0438
    \u0437\u0430\u0442\u0438\u0445\u0430\u044E\u0442. \u0421\u0438\u0434\u044F\u0442,
    \u043F\u0440\u0438\u0436\u0430\u0432\u0448\u0438\u0441\u044C \u0434\u0440\u0443\u0433
    \u043A \u0434\u0440\u0443\u0433\u0443 \u0438 \u0441\u043C\u043E\u0442\u0440\u044F\u0442,
    \u043A\u0430\u043A \u0431\u0435\u0436\u0438\u0442 \u0438\u0433\u043B\u0430 \u043F\u043E
    \u0447\u0435\u0440\u043D\u043E\u043C\u0443 \u043F\u043E\u043B\u043E\u0442\u043D\u0443
    \u043F\u043B\u0430\u0441\u0442\u0438\u043D\u043A\u0438. \u0421\u0437\u0430\u0434\u0438
    \u043F\u043E\u0434\u0445\u043E\u0434\u0438\u0442 \u041B\u043E\u0440\u0435\u043D,
    \u0442\u0440\u043E\u0433\u0430\u0435\u0442 \u0442\u0435\u0431\u044F \u0437\u0430
    \u043F\u043B\u0435\u0447\u043E \u0438 \u043F\u0440\u0438\u0433\u043B\u0430\u0448\u0430\u0435\u0442
    \u043D\u0430 \u0442\u0430\u043D\u0435\u0446."
  nextStates:
  - {fileID: 11400000, guid: f5a8ca4d702e5a046b74f727b8836b7d, type: 2}
  - {fileID: 11400000, guid: bd54dedaa0d10eb45be9c92e58d36bc3, type: 2}
  location: "\u041D\u0435\u0438\u0437\u0432\u0435\u0441\u0442\u043D\u0430\u044F \u043F\u043B\u0430\u043D\u0435\u0442\u0430"
  oxygenLevel: 0
  options:
  - "\u0422\u0430\u043D\u0446\u0435\u0432\u0430\u0442\u044C \u0441 \u041B\u043E\u0440\u0435\u043D"
  - "\u041E\u0442\u043A\u0430\u0437\u0430\u0442\u044C\u0441\u044F \u043E\u0442 \u0442\u0430\u043D\u0446\u0430"
  isKeepSelectedOption: 0
  isRun: 0
