%YAML 1.1
%TAG !u! tag:unity3d.com,2011:
--- !u!114 &11400000
MonoBehaviour:
  m_ObjectHideFlags: 0
  m_CorrespondingSourceObject: {fileID: 0}
  m_PrefabInstance: {fileID: 0}
  m_PrefabAsset: {fileID: 0}
  m_GameObject: {fileID: 0}
  m_Enabled: 1
  m_EditorHideFlags: 0
  m_Script: {fileID: 11500000, guid: 0229453bbe5380c4eae6758addf4f160, type: 3}
  m_Name: ComplexStateBeast4
  m_EditorClassIdentifier: 
  nextStates:
  - {fileID: 11400000, guid: 07d0b2adf319dd840a8d390f332f6940, type: 2}
  - {fileID: 11400000, guid: 7035f6428ce5138418aecb79a1b98eff, type: 2}
  - {fileID: 11400000, guid: 3a310961203186b408126a5c85866ee6, type: 2}
