%YAML 1.1
%TAG !u! tag:unity3d.com,2011:
--- !u!114 &11400000
MonoBehaviour:
  m_ObjectHideFlags: 0
  m_CorrespondingSourceObject: {fileID: 0}
  m_PrefabInstance: {fileID: 0}
  m_PrefabAsset: {fileID: 0}
  m_GameObject: {fileID: 0}
  m_Enabled: 1
  m_EditorHideFlags: 0
  m_Script: {fileID: 11500000, guid: f1f7a701865d04946bc3ec6b4e28f77a, type: 3}
  m_Name: StateAid3
  m_EditorClassIdentifier: 
  storyText: "\u0412 \u0433\u043E\u043B\u043E\u0432\u0435 \u043F\u0440\u043E\u044F\u0441\u043D\u044F\u0435\u0442\u0441\u044F.
    \u0422\u044B \u0432\u0441\u043A\u0430\u043A\u0438\u0432\u0430\u0435\u0448\u044C
    \u043D\u0430 \u043D\u043E\u0433\u0438. \u041F\u043E\u0440\u044B\u0432 \u0432\u0435\u0442\u0440\u0430
    \u043E\u0442 \u043E\u0441\u0442\u0430\u0442\u043A\u043E\u0432 \u043A\u043E\u0440\u0430\u0431\u043B\u044F
    \u043F\u0440\u0438\u043D\u043E\u0441\u0438\u0442 \u043A \u0442\u0432\u043E\u0438\u043C
    \u043D\u043E\u0433\u0430\u043C \u043E\u0431\u0433\u043E\u0440\u0435\u0432\u0448\u0443\u044E
    \u0444\u043E\u0442\u043E\u043A\u0430\u0440\u0442\u043E\u0447\u043A\u0443. \r\n\r\n\u041F\u043E\u0434\u043D\u044F\u0432
    \u0435\u0435, \u0442\u044B \u0432\u0438\u0434\u0438\u0448\u044C \u0443\u043B\u044B\u0431\u0430\u044E\u0449\u0435\u0435\u0441\u044F
    \u043B\u0438\u0446\u043E \u0441\u0432\u0435\u0442\u043B\u043E\u0432\u043E\u043B\u043E\u0441\u043E\u0439
    \u0434\u0435\u0432\u0443\u0448\u043A\u0438. \u201C\u041B\u043E\u0440\u0435\u043D\u201D,
    \u2014 \u0441\u0440\u044B\u0432\u0430\u0435\u0442\u0441\u044F \u0441 \u0442\u0432\u043E\u0438\u0445
    \u0433\u0443\u0431. \u0421\u043A\u0440\u0438\u043F \u0441\u0442\u0430\u043D\u043E\u0432\u0438\u0442\u0441\u044F
    \u043D\u0435\u0432\u044B\u043D\u043E\u0441\u0438\u043C\u043E \u0433\u0440\u043E\u043C\u043A\u0438\u043C,
    \u0430 \u0442\u0435\u043D\u0438 \u043E\u0431\u0440\u0430\u0437\u0443\u044E\u0442
    \u043A\u043E\u0440\u0438\u0434\u043E\u0440, \u0432\u0435\u0434\u0443\u0449\u0438\u0439
    \u0432 \u0440\u0430\u0441\u0449\u0435\u043B\u0438\u043D\u0443."
  nextStates:
  - {fileID: 11400000, guid: 6fa6ebffa9b066b4fbb86f1f0d950cfb, type: 2}
  location: "\u041D\u0435\u0438\u0437\u0432\u0435\u0441\u0442\u043D\u0430\u044F \u043F\u043B\u0430\u043D\u0435\u0442\u0430"
  oxygenLevel: 0
  options:
  - "\u0418\u0434\u0442\u0438 \u043F\u043E \u043A\u043E\u0440\u0438\u0434\u043E\u0440\u0443"
  isKeepSelectedOption: 0
  isRun: 0
